…
#### Loading DE results
Load the differential expression results from the experimental data to be analysed, and map the identifiers to match the format of PKN. We used "Alternate SL1344 identifiers" (SL0000 format) for the resource. For S. Typhimurium strains we recommend using the supplementary table 2 published in `Canals et al., 2019`, uploaded to this repository under `data/analysis/d23480_annotation.tsv`. For further removed strains the protein orthology based mapping table may be used, available under `orthology_mapping/Mapping_table_salmonact.tsv`.

Below are the corresponding steps from the notebook replicating the analysis in the manuscript (`scripts/salmonact_notebook.Rmd`):

Loading mapping data from `Canals et al., 2019` for S. Typhimurium strains, selecting LT2 and SL1344 identifiers:
```
ann <- read_tsv("../data/analysis/d23580_annotation.tsv")
annotation_data <- read_tsv("../data/analysis/d23580_annotation.tsv") %>%
  select(`LT2 orthologue`, `Alternate SL1344 identifier`) %>%
  dplyr::rename(LT2 = `LT2 orthologue`, SL1344 = `Alternate SL1344 identifier`)
```
The resulting mapping table will look like this:
```
# A tibble: 5,126 × 2
   LT2     SL1344
   <chr>   <chr> 
 1 STM0001 SL0001
 2 STM0002 SL0002
 3 STM0003 SL0003
 4 STM0004 SL0004
 5 STM0005 SL0005
 6 STM0006 SL0006
 7 STM0007 SL0007
 8 STM0008 SL0008
 9 STM0009 SL0009
10 STM0010 SL0010
# ℹ 5,116 more rows
# ℹ Use `print(n = ...)` to see more rows
```
…
